-- Merging decision tree log ---
manifest
ADDED from E:\AndroidStudioProjects\CustomListView\app\src\main\AndroidManifest.xml:2:1-27:12
	package
		ADDED from E:\AndroidStudioProjects\CustomListView\app\src\main\AndroidManifest.xml:3:5-48
		INJECTED from E:\AndroidStudioProjects\CustomListView\app\src\main\AndroidManifest.xml
		INJECTED from E:\AndroidStudioProjects\CustomListView\app\src\main\AndroidManifest.xml
	android:versionName
		ADDED from E:\AndroidStudioProjects\CustomListView\app\src\main\AndroidManifest.xml:5:5-30
		INJECTED from E:\AndroidStudioProjects\CustomListView\app\src\main\AndroidManifest.xml
		INJECTED from E:\AndroidStudioProjects\CustomListView\app\src\main\AndroidManifest.xml
	android:versionCode
		ADDED from E:\AndroidStudioProjects\CustomListView\app\src\main\AndroidManifest.xml:4:5-28
		INJECTED from E:\AndroidStudioProjects\CustomListView\app\src\main\AndroidManifest.xml
		INJECTED from E:\AndroidStudioProjects\CustomListView\app\src\main\AndroidManifest.xml
	xmlns:android
		ADDED from E:\AndroidStudioProjects\CustomListView\app\src\main\AndroidManifest.xml:2:11-69
uses-sdk
ADDED from E:\AndroidStudioProjects\CustomListView\app\src\main\AndroidManifest.xml:7:5-9:41
	android:targetSdkVersion
		ADDED from E:\AndroidStudioProjects\CustomListView\app\src\main\AndroidManifest.xml:9:9-38
		INJECTED from E:\AndroidStudioProjects\CustomListView\app\src\main\AndroidManifest.xml
		INJECTED from E:\AndroidStudioProjects\CustomListView\app\src\main\AndroidManifest.xml
	android:minSdkVersion
		ADDED from E:\AndroidStudioProjects\CustomListView\app\src\main\AndroidManifest.xml:8:9-34
		INJECTED from E:\AndroidStudioProjects\CustomListView\app\src\main\AndroidManifest.xml
		INJECTED from E:\AndroidStudioProjects\CustomListView\app\src\main\AndroidManifest.xml
application
ADDED from E:\AndroidStudioProjects\CustomListView\app\src\main\AndroidManifest.xml:11:5-25:19
	android:label
		ADDED from E:\AndroidStudioProjects\CustomListView\app\src\main\AndroidManifest.xml:14:9-41
	android:allowBackup
		ADDED from E:\AndroidStudioProjects\CustomListView\app\src\main\AndroidManifest.xml:12:9-35
	android:icon
		ADDED from E:\AndroidStudioProjects\CustomListView\app\src\main\AndroidManifest.xml:13:9-45
	android:theme
		ADDED from E:\AndroidStudioProjects\CustomListView\app\src\main\AndroidManifest.xml:15:9-40
activity#com.androidexample.customlistview.CustomListViewAndroidExample
ADDED from E:\AndroidStudioProjects\CustomListView\app\src\main\AndroidManifest.xml:16:9-24:20
	android:label
		ADDED from E:\AndroidStudioProjects\CustomListView\app\src\main\AndroidManifest.xml:18:13-45
	android:name
		ADDED from E:\AndroidStudioProjects\CustomListView\app\src\main\AndroidManifest.xml:17:13-90
intent-filter#android.intent.action.MAIN+android.intent.category.LAUNCHER
ADDED from E:\AndroidStudioProjects\CustomListView\app\src\main\AndroidManifest.xml:19:13-23:29
action#android.intent.action.MAIN
ADDED from E:\AndroidStudioProjects\CustomListView\app\src\main\AndroidManifest.xml:20:17-69
	android:name
		ADDED from E:\AndroidStudioProjects\CustomListView\app\src\main\AndroidManifest.xml:20:25-66
category#android.intent.category.LAUNCHER
ADDED from E:\AndroidStudioProjects\CustomListView\app\src\main\AndroidManifest.xml:22:17-77
	android:name
		ADDED from E:\AndroidStudioProjects\CustomListView\app\src\main\AndroidManifest.xml:22:27-74
